%YAML 1.1
%TAG !u! tag:unity3d.com,2011:
--- !u!1045 &1
EditorBuildSettings:
  m_ObjectHideFlags: 0
  serializedVersion: 2
  m_Scenes:
  - enabled: 0
    path: Assets/Photon Unity Networking/Demos/DemoHub/DemoHub-Scene-V2.unity
    guid: 7dfd47dc8b9484dd79d8636d8603a9e5
  - enabled: 0
    path: Assets/Photon Unity Networking/Demos/Demo2DJumpAndRunWithPhysics/Demo2DJumpAndRunWithPhysics-Scene.unity
    guid: 2cd8533503c3ea649b6c543c6126c811
  - enabled: 0
    path: Assets/Photon Unity Networking/Demos/DemoBoxes/DemoBoxes-Scene.unity
    guid: 484b70123468e8d47b39976c6516756b
  - enabled: 0
    path: Assets/Photon Unity Networking/Demos/DemoChangeOwner/DemoChangeOwner-Scene.unity
    guid: efb7b18562339d8459d546ede0a9e4cc
  - enabled: 0
    path: Assets/Photon Unity Networking/Demos/DemoChat/DemoChat-Scene.unity
    guid: ec07267f6a28fb044ac89845274e79af
  - enabled: 0
    path: Assets/Photon Unity Networking/Demos/DemoFriendsAndCustomAuth/DemoFriends-Scene.unity
    guid: ce42d7aa47657b740b3200a83d5874c6
  - enabled: 0
    path: Assets/Photon Unity Networking/Demos/DemoMecanim/DemoMecanim-Scene.unity
    guid: 2fefc96b2a4a31b4092fa7bbea08afaf
  - enabled: 0
    path: Assets/Photon Unity Networking/Demos/DemoPickup/DemoPickup-Scene.unity
    guid: 42026d6c332a6b5438ed37ef7af9fba8
  - enabled: 0
    path: Assets/Photon Unity Networking/Demos/DemoRockPaperScissors/DemoRPS-Connect-Scene.unity
    guid: 96da012e5ddf34c42832a2b67bb519a7
  - enabled: 0
    path: Assets/Photon Unity Networking/Demos/DemoRockPaperScissors/DemoRPS-Scene.unity
    guid: 8a3480dd507edcd40b9a02e219e22da6
  - enabled: 0
    path: Assets/Photon Unity Networking/Demos/DemoRPGMovement/DemoRPGMovement-Scene.unity
    guid: 04d0690ecf8bf94489c8427dd8186299
  - enabled: 0
    path: Assets/Photon Unity Networking/Demos/DemoSynchronization/DemoSynchronization-Scene.unity
    guid: caec1ee6e27780946b8db3d1aebaa478
  - enabled: 0
    path: Assets/Photon Unity Networking/Demos/DemoWorker/DemoWorker-Scene.unity
    guid: d127e961917b252458a9910af185709e
  - enabled: 0
    path: Assets/Photon Unity Networking/Demos/DemoWorker/DemoWorkerGame-Scene.unity
    guid: b2b4086771d6a0e4cab81261c6e6c4f9
  - enabled: 0
    path: Assets/Photon Unity Networking/Demos/MarcoPolo-Tutorial/MarcoPolo-Scene.unity
    guid: 4edb89b81eea36243978d62c589e60ad
  - enabled: 0
    path: Assets/Photon Unity Networking/Demos/PunBasics-Tutorial/Scenes/PunBasics-Launcher.unity
    guid: bff77b01b50254edbb6edeeaba5ae8b3
  - enabled: 0
    path: Assets/Photon Unity Networking/Demos/PunBasics-Tutorial/Scenes/PunBasics-Room
      for 1.unity
    guid: 9b8561c6e396849a5ba48c3eb9524049
  - enabled: 0
    path: Assets/Photon Unity Networking/Demos/PunBasics-Tutorial/Scenes/PunBasics-Room
      for 2.unity
    guid: 764428c63577f4580af4ce54ca9f4b1b
  - enabled: 0
    path: Assets/Photon Unity Networking/Demos/PunBasics-Tutorial/Scenes/PunBasics-Room
      for 3.unity
    guid: e07afcca5bf1a41f5bd28f498656b7b8
  - enabled: 0
    path: Assets/Photon Unity Networking/Demos/PunBasics-Tutorial/Scenes/PunBasics-Room
      for 4.unity
    guid: e7a7f9734636d415ca84ef3aaf7680f6
  - enabled: 0
    path: Assets/ingamestuff/firstattempt.unity
    guid: 5c6901bf0343836418b1765284cf67a0
  - enabled: 0
    path: 
    guid: 9bf749b1b561218449bfd67423ce5a77
  - enabled: 1
    path: Assets/ingamestuff/loginscene.unity
    guid: 8b6741608ca0f6543aa4ffd56be2f28f
  - enabled: 0
    path: Assets/ingamestuff/autojoingame.unity
    guid: 7a2ca7a0696a0204699efb204e9537ac
  - enabled: 1
    path: Assets/worldscene.unity
    guid: e44125a606075324190cb12d1b241f58
